Medicaid Expansion: ED Admissions Model
…
There is a very high amount of missingness in the race variables

medicare %>% 
  mutate(
    p_white_missing = is.na(`percent_non-hispanic_white`),
    p_aa_missing = is.na(percent_african_american),
    p_h_missing = is.na(percent_hispanic)
  ) %>% 
  group_by(year, p_white_missing, p_aa_missing, p_h_missing) %>% 
  summarize(cnt = n())

## `summarise()` regrouping output by 'year', 'p_white_missing', 'p_aa_missing' (override with `.groups` argument)

## # A tibble: 24 x 5
## # Groups:   year, p_white_missing, p_aa_missing [24]
##     year p_white_missing p_aa_missing p_h_missing   cnt
##    <dbl> <lgl>           <lgl>        <lgl>       <int>
##  1  2007 FALSE           FALSE        FALSE        1651
##  2  2007 TRUE            TRUE         TRUE         1494
##  3  2008 FALSE           FALSE        FALSE        1664
##  4  2008 TRUE            TRUE         TRUE         1483
##  5  2009 FALSE           FALSE        FALSE        1703
##  6  2009 TRUE            TRUE         TRUE         1442
##  7  2010 FALSE           FALSE        FALSE        1741
##  8  2010 TRUE            TRUE         TRUE         1404
##  9  2011 FALSE           FALSE        FALSE        1791
## 10  2011 TRUE            TRUE         TRUE         1354
## #  with 14 more rows
…
